\beamer@sectionintoc {1}{Proyecto}{2}{0}{1}
\beamer@subsectionintoc {1}{1}{Objetivo}{2}{0}{1}
\beamer@subsectionintoc {1}{2}{Dise\~no}{3}{0}{1}
\beamer@subsectionintoc {1}{3}{Problemas}{5}{0}{1}
\beamer@sectionintoc {2}{Catenaria}{7}{0}{2}
\beamer@subsectionintoc {2}{1}{?`Qu\'e es una Catenaria?}{7}{0}{2}
\beamer@subsectionintoc {2}{2}{Otra forma de imaginarla}{8}{0}{2}
\beamer@subsectionintoc {2}{3}{Discretizaci\'on de la Catenaria}{11}{0}{2}
