\relax 
\providecommand\hyper@newdestlabel[2]{}
\providecommand\HyperFirstAtBeginDocument{\AtBeginDocument}
\HyperFirstAtBeginDocument{\ifx\hyper@anchor\@undefined
\global\let\oldcontentsline\contentsline
\gdef\contentsline#1#2#3#4{\oldcontentsline{#1}{#2}{#3}}
\global\let\oldnewlabel\newlabel
\gdef\newlabel#1#2{\newlabelxx{#1}#2}
\gdef\newlabelxx#1#2#3#4#5#6{\oldnewlabel{#1}{{#2}{#3}}}
\AtEndDocument{\ifx\hyper@anchor\@undefined
\let\contentsline\oldcontentsline
\let\newlabel\oldnewlabel
\fi}
\fi}
\global\let\hyper@last\relax 
\gdef\HyperFirstAtBeginDocument#1{#1}
\providecommand\HyField@AuxAddToFields[1]{}
\providecommand\HyField@AuxAddToCoFields[2]{}
\@writefile{nav}{\headcommand {\slideentry {0}{0}{1}{1/1}{}{0}}}
\@writefile{nav}{\headcommand {\beamer@framepages {1}{1}}}
\@writefile{toc}{\beamer@sectionintoc {1}{Proyecto}{2}{0}{1}}
\@writefile{nav}{\headcommand {\beamer@sectionpages {1}{1}}}
\@writefile{nav}{\headcommand {\beamer@subsectionpages {1}{1}}}
\@writefile{nav}{\headcommand {\sectionentry {1}{Proyecto}{2}{Proyecto}{0}}}
\@writefile{toc}{\beamer@subsectionintoc {1}{1}{Objetivo}{2}{0}{1}}
\@writefile{nav}{\headcommand {\beamer@subsectionpages {2}{1}}}
\@writefile{nav}{\headcommand {\beamer@subsectionentry {0}{1}{1}{2}{Objetivo}}}
\@writefile{nav}{\headcommand {\slideentry {1}{1}{1}{2/2}{Objetivo}{0}}}
\@writefile{nav}{\headcommand {\beamer@framepages {2}{2}}}
\@writefile{toc}{\beamer@subsectionintoc {1}{2}{Dise\~no}{3}{0}{1}}
\@writefile{nav}{\headcommand {\beamer@subsectionpages {2}{2}}}
\@writefile{nav}{\headcommand {\beamer@subsectionentry {0}{1}{2}{3}{Dise\~no}}}
\@writefile{nav}{\headcommand {\slideentry {1}{2}{1}{3/3}{Dise\~no}{0}}}
\@writefile{nav}{\headcommand {\beamer@framepages {3}{3}}}
\@writefile{nav}{\headcommand {\slideentry {1}{2}{2}{4/4}{Dise\~no}{0}}}
\@writefile{nav}{\headcommand {\beamer@framepages {4}{4}}}
\@writefile{toc}{\beamer@subsectionintoc {1}{3}{Problemas}{5}{0}{1}}
\@writefile{nav}{\headcommand {\beamer@subsectionpages {3}{4}}}
\@writefile{nav}{\headcommand {\beamer@subsectionentry {0}{1}{3}{5}{Problemas}}}
\@writefile{nav}{\headcommand {\slideentry {1}{3}{1}{5/5}{Problemas}{0}}}
\@writefile{nav}{\headcommand {\beamer@framepages {5}{5}}}
\@writefile{nav}{\headcommand {\slideentry {1}{3}{2}{6/6}{Problemas}{0}}}
\@writefile{nav}{\headcommand {\beamer@framepages {6}{6}}}
\@writefile{toc}{\beamer@sectionintoc {2}{Catenaria}{7}{0}{2}}
\@writefile{nav}{\headcommand {\beamer@sectionpages {2}{6}}}
\@writefile{nav}{\headcommand {\beamer@subsectionpages {5}{6}}}
\@writefile{nav}{\headcommand {\sectionentry {2}{Catenaria}{7}{Catenaria}{0}}}
\@writefile{toc}{\beamer@subsectionintoc {2}{1}{?`Qu\'e es una Catenaria?}{7}{0}{2}}
\@writefile{nav}{\headcommand {\beamer@subsectionpages {7}{6}}}
\@writefile{nav}{\headcommand {\beamer@subsectionentry {0}{2}{1}{7}{?`Qu\'e es una Catenaria?}}}
\@writefile{nav}{\headcommand {\slideentry {2}{1}{1}{7/7}{?`Qu\'e es una Catenaria?}{0}}}
\@writefile{nav}{\headcommand {\beamer@framepages {7}{7}}}
\@writefile{toc}{\beamer@subsectionintoc {2}{2}{Otra forma de imaginarla}{8}{0}{2}}
\@writefile{nav}{\headcommand {\beamer@subsectionpages {7}{7}}}
\@writefile{nav}{\headcommand {\beamer@subsectionentry {0}{2}{2}{8}{Otra forma de imaginarla}}}
\@writefile{nav}{\headcommand {\slideentry {2}{2}{1}{8/8}{Otra forma de imaginarla}{0}}}
\@writefile{nav}{\headcommand {\beamer@framepages {8}{8}}}
\@writefile{nav}{\headcommand {\slideentry {2}{2}{2}{9/9}{Otra forma de imaginarla}{0}}}
\@writefile{nav}{\headcommand {\beamer@framepages {9}{9}}}
\@writefile{nav}{\headcommand {\slideentry {2}{2}{3}{10/10}{Otra forma de imaginarla}{0}}}
\@writefile{nav}{\headcommand {\beamer@framepages {10}{10}}}
\@writefile{toc}{\beamer@subsectionintoc {2}{3}{Discretizaci\'on de la Catenaria}{11}{0}{2}}
\@writefile{nav}{\headcommand {\beamer@subsectionpages {8}{10}}}
\@writefile{nav}{\headcommand {\beamer@subsectionentry {0}{2}{3}{11}{Discretizaci\'on de la Catenaria}}}
\@writefile{nav}{\headcommand {\slideentry {2}{3}{1}{11/11}{Discretizaci\'on de la Catenaria}{0}}}
\@writefile{nav}{\headcommand {\beamer@framepages {11}{11}}}
\@writefile{nav}{\headcommand {\beamer@partpages {1}{11}}}
\@writefile{nav}{\headcommand {\beamer@subsectionpages {11}{11}}}
\@writefile{nav}{\headcommand {\beamer@sectionpages {7}{11}}}
\@writefile{nav}{\headcommand {\beamer@documentpages {11}}}
\@writefile{nav}{\headcommand {\gdef \inserttotalframenumber {11}}}
\gdef \@abspage@last{11}
